<?xml version="1.0" encoding="UTF-8"?>
<svg width="193px" height="43px" viewBox="0 0 193 43" version="1.1" xmlns="http://www.w3.org/2000/svg" xmlns:xlink="http://www.w3.org/1999/xlink">
    <!-- Generator: Sketch 51.1 (57501) - http://www.bohemiancoding.com/sketch -->
    <title>MusicPlay</title>
    <desc>Created with Sketch.</desc>
    <defs></defs>
    <g id="Desktop" stroke="none" stroke-width="1" fill="none" fill-rule="evenodd" font-family=".SFNSDisplay, .SF NS Display" font-size="44" font-weight="normal" line-spacing="32">
        <g id="Home_Desktop" transform="translate(-60.000000, -19.000000)" fill="#1D1D1D" stroke="#50E3C2" stroke-width="3">
            <g id="Group" transform="translate(59.000000, 14.000000)">
                <text id="MusicPlay">
                    <tspan x="0" y="49">MusicPlay</tspan>
                </text>
            </g>
        </g>
    </g>
</svg>